<?xml version="1.0" encoding="UTF-8" standalone="no"?>
<!-- Generator: Adobe Illustrator 18.0.0, SVG Export Plug-In . SVG Version: 6.00 Build 0)  -->

<svg
   xmlns:dc="http://purl.org/dc/elements/1.1/"
   xmlns:cc="http://creativecommons.org/ns#"
   xmlns:rdf="http://www.w3.org/1999/02/22-rdf-syntax-ns#"
   xmlns:svg="http://www.w3.org/2000/svg"
   xmlns="http://www.w3.org/2000/svg"
   xmlns:sodipodi="http://sodipodi.sourceforge.net/DTD/sodipodi-0.dtd"
   xmlns:inkscape="http://www.inkscape.org/namespaces/inkscape"
   version="1.1"
   id="Layer_1"
   x="0px"
   y="0px"
   width="841.9px"
   height="595.3px"
   viewBox="0 0 841.9 595.3"
   enable-background="new 0 0 841.9 595.3"
   xml:space="preserve"
   sodipodi:docname="hero_f.svg"
   inkscape:version="0.92.4 (f8dce91, 2019-08-02)"><metadata
   id="metadata311"><rdf:RDF><cc:Work
       rdf:about=""><dc:format>image/svg+xml</dc:format><dc:type
         rdf:resource="http://purl.org/dc/dcmitype/StillImage" /><dc:title></dc:title></cc:Work></rdf:RDF></metadata><defs
   id="defs309"><filter
     style="color-interpolation-filters:sRGB;"
     inkscape:label="Fade to Black or White"
     id="filter359"><feColorMatrix
       values="0.25 0 0 0 0 0 0.25 0 0 0 0 0 0.25 0 0 0 0 0 1 0"
       id="feColorMatrix357" /></filter></defs><sodipodi:namedview
   pagecolor="#ffffff"
   bordercolor="#666666"
   borderopacity="1"
   objecttolerance="10"
   gridtolerance="10"
   guidetolerance="10"
   inkscape:pageopacity="0"
   inkscape:pageshadow="2"
   inkscape:window-width="1323"
   inkscape:window-height="713"
   id="namedview307"
   showgrid="false"
   inkscape:zoom="0.89366708"
   inkscape:cx="420.95001"
   inkscape:cy="297.64999"
   inkscape:window-x="43"
   inkscape:window-y="27"
   inkscape:window-maximized="1"
   inkscape:current-layer="Layer_1" />
<g
   id="g304"
   style="filter:url(#filter359)">
	<linearGradient
   id="SVGID_1_"
   gradientUnits="userSpaceOnUse"
   x1="420.945"
   y1="158.2998"
   x2="420.945"
   y2="-90.7558">
		<stop
   offset="0"
   style="stop-color:#FFF2CB"
   id="stop10" />
		<stop
   offset="1"
   style="stop-color:#73CFF4"
   id="stop12" />
	</linearGradient>
	<rect
   y="0"
   fill="url(#SVGID_1_)"
   width="841.9"
   height="595.3"
   id="rect15" />
	<g
   id="g59">
		<path
   fill="#FCB969"
   d="M0,262.8v-76.2c0,0,97-29.9,135-33.7s191.7,32.4,209.9,32.4c18.1,0,181.4-71.1,217.8-73.6    S708,151.7,718,152.9s123.9-11.2,123.9-11.2v111.9L0,262.8z"
   id="path17" />
		<g
   id="g57">
			<path
   fill="#FAAA57"
   d="M43.3,173.9L0,240.9v21.9l2.6,0l68.6-96.4C61.6,168.9,52.1,171.4,43.3,173.9z"
   id="path19" />
			<path
   fill="#FAAA57"
   d="M100.1,159.2c-2.6,0.6-5.3,1.2-8,1.9l-37.2,101l12-0.1L100.1,159.2z"
   id="path21" />
			<path
   fill="#FAAA57"
   d="M152.4,153.1c-7.1-0.5-13-0.6-17.4-0.2c-4.1,0.4-9,1.1-14.4,2.1L103,261.6l22.8-0.2L152.4,153.1z"
   id="path23" />
			<path
   fill="#FAAA57"
   d="M220.3,162.8c-12.2-2.2-24.2-4.2-35.2-5.8L160,261l27.7-0.3L220.3,162.8z"
   id="path25" />
			<path
   fill="#FAAA57"
   d="M243.1,166.9c-1.8-0.3-3.7-0.7-5.5-1l-25.7,94.5l10.1-0.1L243.1,166.9z"
   id="path27" />
			<path
   fill="#FAAA57"
   d="M281.2,174.2c-4.1-0.8-8.4-1.6-12.7-2.5l-27.8,88.4l6.3-0.1L281.2,174.2z"
   id="path29" />
			<path
   fill="#FAAA57"
   d="M306.5,179.1c-3.1-0.6-6.3-1.2-9.6-1.8l-14.5,82.4l16.6-0.2L306.5,179.1z"
   id="path31" />
			<path
   fill="#FAAA57"
   d="M345.1,185.3l-27.3,73.9l15.7-0.2l33.3-79.7C356.1,183,348.4,185.3,345.1,185.3z"
   id="path33" />
			<path
   fill="#FAAA57"
   d="M406.4,164.9c-3.1,1.2-6.1,2.3-9,3.4l-13.9,90.3l11.9-0.1L406.4,164.9z"
   id="path35" />
			<path
   fill="#FAAA57"
   d="M459.7,144.7c-9.6,3.6-19.3,7.3-28.7,10.9l1.4,102.5l21.3-0.2L459.7,144.7z"
   id="path37" />
			<path
   fill="#FAAA57"
   d="M529.3,119.9c-10.7,3.4-22.9,7.6-35.9,12.3l-6.3,125.3l24.9-0.3L529.3,119.9z"
   id="path39" />
			<path
   fill="#FAAA57"
   d="M553.6,113.2c-1.8,0.4-3.7,0.8-5.8,1.4l-10.7,142.4l11.1-0.1L553.6,113.2z"
   id="path41" />
			<path
   fill="#FAAA57"
   d="M563.8,256.6l3.5,0l25.3-141.4c-4.5-0.9-8.9-1.7-12.9-2.3L563.8,256.6z"
   id="path43" />
			<path
   fill="#FAAA57"
   d="M618.7,121.5c-3.4-0.9-6.8-1.8-10.1-2.7l0.6,137.2l19.6-0.2L618.7,121.5z"
   id="path45" />
			<path
   fill="#FAAA57"
   d="M841.9,222.1v-80.4c0,0-6.7,0.7-17,1.8l-13.2,110.4l24.3-0.3L841.9,222.1z"
   id="path47" />
			<path
   fill="#FAAA57"
   d="M791.3,147c-11.8,1.2-24.1,2.4-35.2,3.4l-4.9,104.1l27-0.3L791.3,147z"
   id="path49" />
			<path
   fill="#FAAA57"
   d="M716.9,254.9l10.4-0.1l10-102.8c-2.3,0.2-4.5,0.3-6.5,0.5L716.9,254.9z"
   id="path51" />
			<path
   fill="#FAAA57"
   d="M706.5,149.6c-3.3-1.1-7.2-2.4-11.5-3.8l0.5,109.4l4.5,0L706.5,149.6z"
   id="path53" />
			<path
   fill="#FAAA57"
   d="M676.3,139.4c-3.3-1.1-6.7-2.2-10.2-3.4l-30.2,119.8l19.7-0.2L676.3,139.4z"
   id="path55" />
		</g>
	</g>
	<path
   fill="#ED7E42"
   d="M0,308.5v-113c0,0,11-12.2,31-8.1s24,32.1,24,32.1s1-17,10-17s16.5,26.7,16.5,26.7S84,212.5,93,210.5   s10.6,14.4,10.6,14.4s9.6-17.4,24.5-19.4s23.9,26,23.9,26s9-17,14-18s13,16,13,16s-1-25,10-25s24.6,15,24.6,15s3.8-19,13.6-19   c9.8,0,17.8,22,17.8,22s-0.9-16,11-16c12,0,13.8,21,13.8,21s9.7-18,15.4-17c5.7,1,7.6,14,7.6,14s7.4-18,19.8-18c12.4,0,16,23,16,23   s-1.5-22,12-23c13.5-1,11.5,14,11.5,14s17-8,24-8s21,20.4,21,20.4s0-33.4,8-33.4s21.3,24.5,21.3,24.5s-1.2-21.5,10.8-22.5   s18,21,18,21s5.8-9,13.1-11.2c7.3-2.2,7.9,18.2,7.9,18.2s9-18,16-19s17,18,17,18s2-18,8-19s12,16,12,16s1-18,13-18s16.8,23,16.8,23   s11.7-27,24-28c12.2-1,20.1,15,20.1,15s8.1-15,13.1-15s8,19,8,19s5.5-23.8,15.8-21.2c10.3,2.6,24.2,13.2,24.2,13.2s6-19,16-18   s10.5,18,10.5,18s2.5-15,11.5-15s26,21.8,26,21.8s-1.5-26.8,10.3-26.8s25.8,24.4,25.8,24.4s10.9-32.6,19.9-30.5s15,33.1,15,33.1   s7.8-57,42.9-40v125.1L0,308.5z"
   id="path61" />
	<path
   fill="#67662B"
   d="M841.9,334.5v-113c0,0-11-12.2-31-8.1s-24,32.1-24,32.1s-1-17-10-17s-16.5,26.7-16.5,26.7   s-2.5-16.7-11.5-18.7s-10.6,14.4-10.6,14.4s-9.6-17.4-24.5-19.4c-14.9-2-23.9,26-23.9,26s-9-17-14-18s-13,16-13,16s1-25-10-25   s-24.6,15-24.6,15s-3.8-19-13.6-19c-9.8,0-17.8,22-17.8,22s0.9-16-11-16c-12,0-13.8,21-13.8,21s-9.7-18-15.4-17   c-5.7,1-7.6,14-7.6,14s-7.4-18-19.8-18c-12.4,0-16,23-16,23s1.5-22-12-23c-13.5-1-11.5,14-11.5,14s-17-8-24-8s-21,20.4-21,20.4   s0-33.4-8-33.4S415.6,250,415.6,250s1.2-21.5-10.8-22.5c-12-1-18,21-18,21s-5.8-9-13.1-11.2c-7.3-2.2-7.9,18.2-7.9,18.2   s-9-18-16-19s-17,18-17,18s-2-18-8-19s-12,16-12,16s-1-18-13-18s-16.8,23-16.8,23s-11.7-27-24-28c-12.2-1-20.1,15-20.1,15   s-8.1-15-13.1-15s-8,19-8,19s-5.5-23.8-15.8-21.2c-10.3,2.6-24.2,13.2-24.2,13.2s-6-19-16-18s-10.5,18-10.5,18s-2.5-15-11.5-15   s-26,21.8-26,21.8s1.5-26.8-10.3-26.8s-25.8,24.4-25.8,24.4s-10.9-32.6-19.9-30.5s-15,33.1-15,33.1s-7.8-57-42.9-40v125.1   L841.9,334.5z"
   id="path63" />
	<g
   id="g77">
		<path
   fill="#807D31"
   d="M0,394.9V275.6c0,0,123,6,192,6s310.3-27,340.7-27c30.3,0,166.3,12,180.3,12s128.9-6,128.9-6v111.5    L0,394.9z"
   id="path65" />
		<path
   fill="#A19B35"
   d="M0,329c0,0,174-5.4,270-5.4c96,0,571.9,2.7,571.9,2.7v217.9H0V329z"
   id="path67" />
		<g
   id="g75">
			<path
   fill="#69662A"
   d="M362.2,269.5c70.9,5.5,247.8,18.9,300,18.9c4.1,0,7.4-0.1,9.9-0.3c41.3-3,167.3-15.7,169.9-16v-0.5     l-0.1-0.5c-1.3,0.1-128.4,13-169.9,16c-32.8,2.3-223.5-12-303.9-18.2C366.1,269.1,364.2,269.3,362.2,269.5z"
   id="path69" />
			<path
   fill="#69662A"
   d="M841.9,301.7c-45.3,2.4-216.8,10.8-283.2,7.4c-50.9-2.6-190.2-20.7-278.3-32.5c-1.6,0.1-3.2,0.3-4.7,0.4     c87.8,11.8,231.1,30.5,282.9,33.2c10.9,0.6,24.7,0.8,40.3,0.8c79.2,0,205-6.2,242.9-8.2V301.7z"
   id="path71" />
			<path
   fill="#69662A"
   d="M0,295.8v1c28.6,1,89,3.2,148.9,5c75,2.2,116.4,2.9,139.3,2.9c27.9,0,28.3-1.1,28.5-1.7     c0-0.1,0.1-0.5-0.4-0.8c-3.9-2.6-50.3-11.6-102.5-21.2c-1.6,0.1-3.1,0.1-4.6,0.2c52.3,9.5,99.8,18.7,106.1,21.6     C303.5,306.1,113.9,300,0,295.8z"
   id="path73" />
		</g>
	</g>
	<path
   fill="#B4E0DB"
   d="M0,338.8c0,0,199.4,6.1,308.7,3.5c109.3-2.6,256.8-7.2,320.1-7.2s213.2-1.5,213.2-1.5v261.6H0V338.8z"
   id="path79" />
	<linearGradient
   id="SVGID_2_"
   gradientUnits="userSpaceOnUse"
   x1="0"
   y1="471.9042"
   x2="841.89"
   y2="471.9042">
		<stop
   offset="0"
   style="stop-color:#82CEC7"
   id="stop81" />
		<stop
   offset="1"
   style="stop-color:#5EB5B4"
   id="stop83" />
	</linearGradient>
	<path
   fill="url(#SVGID_2_)"
   d="M841.9,348.5c0,0-199.4,5.8-308.7,3.3c-109.3-2.5-256.8,1.2-320.1,1.2c-63.3,0-213.2,2.6-213.2,2.6   v239.6h841.9V348.5z"
   id="path86" />
	<g
   id="g130">
		<linearGradient
   id="SVGID_3_"
   gradientUnits="userSpaceOnUse"
   x1="420.945"
   y1="720.7201"
   x2="420.945"
   y2="356.171">
			<stop
   offset="0"
   style="stop-color:#B4E0DB"
   id="stop88" />
			<stop
   offset="1"
   style="stop-color:#B4E0DB;stop-opacity:0"
   id="stop90" />
		</linearGradient>
		<path
   fill="url(#SVGID_3_)"
   d="M0,539.3c0,0,241.3,13.3,383.1,13.3s458.8-26.3,458.8-26.3v13.1c0,0-203.3,13.6-213.1,28    c-9.8,14.3,213.1-2.8,213.1-2.8v11.2l-206,19.5H204c0,0-27-17.1-204-17.1v-10.9c0,0,277.5,14.3,299.7,2.8    C322,558.7,0,552.5,0,552.5V539.3z"
   id="path93" />
		<linearGradient
   id="SVGID_4_"
   gradientUnits="userSpaceOnUse"
   x1="420.945"
   y1="720.7203"
   x2="420.945"
   y2="356.1717">
			<stop
   offset="0"
   style="stop-color:#B4E0DB"
   id="stop95" />
			<stop
   offset="1"
   style="stop-color:#B4E0DB;stop-opacity:0"
   id="stop97" />
		</linearGradient>
		<path
   fill="url(#SVGID_4_)"
   d="M0,524.4c0,0,303.9-10.8,463.9-10.8s378,5.4,378,5.4v-9.2c0,0-498.8-9.9-573.8-9.9S0,517,0,517    V524.4z"
   id="path100" />
		<linearGradient
   id="SVGID_5_"
   gradientUnits="userSpaceOnUse"
   x1="420.945"
   y1="720.7197"
   x2="420.945"
   y2="356.1706">
			<stop
   offset="0"
   style="stop-color:#B4E0DB"
   id="stop102" />
			<stop
   offset="1"
   style="stop-color:#B4E0DB;stop-opacity:0"
   id="stop104" />
		</linearGradient>
		<path
   fill="url(#SVGID_5_)"
   d="M0,502.4c0,0,221.6-23.7,282.4-23.9c60.8-0.2,559.5,16.1,559.5,16.1v-8.2c0,0-185.9-3.3-197.9-13    c-12-9.7,197.9-4,197.9-4v-14.1c0,0-203.8-2.6-249.3-2.1C547,453.7,0,477.8,0,477.8V502.4z"
   id="path107" />
		<linearGradient
   id="SVGID_6_"
   gradientUnits="userSpaceOnUse"
   x1="163.4695"
   y1="720.7195"
   x2="163.4695"
   y2="356.1703">
			<stop
   offset="0"
   style="stop-color:#B4E0DB"
   id="stop109" />
			<stop
   offset="1"
   style="stop-color:#B4E0DB;stop-opacity:0"
   id="stop111" />
		</linearGradient>
		<path
   fill="url(#SVGID_6_)"
   d="M0,464.5c0,0,313.1-10.5,326.6-19.6S0,448.9,0,448.9"
   id="path114" />
		<linearGradient
   id="SVGID_7_"
   gradientUnits="userSpaceOnUse"
   x1="420.945"
   y1="720.7202"
   x2="420.945"
   y2="356.1713">
			<stop
   offset="0"
   style="stop-color:#B4E0DB"
   id="stop116" />
			<stop
   offset="1"
   style="stop-color:#B4E0DB;stop-opacity:0"
   id="stop118" />
		</linearGradient>
		<path
   fill="url(#SVGID_7_)"
   d="M0,435.6c0,0,248.9-9.2,362.9,0c114.1,9.2,478.9,1,478.9,1v-11.8c0,0-460.9-3.1-535.4-5.1    C232,417.7,0,430.5,0,430.5V435.6z"
   id="path121" />
		<linearGradient
   id="SVGID_8_"
   gradientUnits="userSpaceOnUse"
   x1="420.945"
   y1="720.7199"
   x2="420.945"
   y2="356.1707">
			<stop
   offset="0"
   style="stop-color:#B4E0DB"
   id="stop123" />
			<stop
   offset="1"
   style="stop-color:#B4E0DB;stop-opacity:0"
   id="stop125" />
		</linearGradient>
		<path
   fill="url(#SVGID_8_)"
   d="M0,405.7c0,0,440.2-12.7,553.6-10.8c113.4,1.8,288.3,5.3,288.3,5.3v-11.5c0,0-162.4-2.2-165.6-12.1    c-3.3-9.9,165.6-4.5,165.6-4.5v-15.4c0,0-277.9,5-386.9,15s-455-6-455-6v15.5c0,0,222-3.5,227.5,3.5S0,394.9,0,394.9V405.7z"
   id="path128" />
	</g>
	<g
   id="g290">
		<g
   id="g144">
			<path
   fill="#89553D"
   d="M232.3,489.2c0,0,10.6,64.6,11.2,68.7c0.6,4.1,3.3,30.6,3.3,30.6l33.8,3.6l-3.6-111.3l-22.4,6.5     L232.3,489.2z"
   id="path132" />
			<g
   id="g140">
				<path
   fill="#774933"
   d="M273.9,529c-0.4-13.6-0.4-34.7-0.4-47.3l-2.1,0.6c-0.1,17-0.2,48.5,0.1,60c0.2,11.4,2.7,36.1,4.2,49.3      l2.8,0.3C277.2,576.6,274.4,544.8,273.9,529z"
   id="path134" />
				<path
   fill="#774933"
   d="M253.1,536.4c0-7.3,1.5-33,2.4-49.4l-1,0.3l-1.1,0.1c-1.2,16.3-3.1,40.4-3.7,42      c-0.6,1.7-5.6-24.6-8.6-40.9l-2.4,0.2c2.9,16.7,8,46.1,8.9,51.6c0.9,5.6,1.9,33.3,2.4,48.6l3,0.3      C253.1,572.4,253.1,544.1,253.1,536.4z"
   id="path136" />
				<path
   fill="#774933"
   d="M265.1,590.4c-0.9-12-3.1-41-3.5-46.9c-0.5-5.7,1-41.8,1.7-58.8l-1.6,0.5c-0.8,14.4-2.2,42.5-2.2,51.2      c0,10.3,0.7,36.4,0.3,53.5L265.1,590.4z"
   id="path138" />
			</g>
			<path
   fill="#C59861"
   d="M253.1,480.7c0,0-19,3.9-20.8,8.4s15.7,6.4,25.3,4.5c9.7-1.8,20.2-11.5,19.3-13c-0.9-1.5-18.4,0-18.4,0     l-4,6.5L253.1,480.7z"
   id="path142" />
		</g>
		<g
   id="g160">
			<path
   fill="#89553D"
   d="M567.4,595.3h27.2c3.4-25.2,10.3-75.3,10.8-79.4c0.8-5.6,5.3-26,5.3-26l-48-0.1c0,0,4.2,52.5,4.8,56.9     C568,550,567.6,581.6,567.4,595.3z"
   id="path146" />
			<g
   id="g154">
				<path
   fill="#774933"
   d="M575.3,542.8c0.2-6,0-35.9-0.2-53l-1.4,0c-0.3,19.2-0.8,50.2-1.3,58.4c-0.5,8-2.1,32-3.2,47.2h2      C572.8,577.3,575.2,548.6,575.3,542.8z"
   id="path148" />
				<path
   fill="#774933"
   d="M587.9,529.5c0.7-3.4-2.7-24.8-5.2-39.7l-2.6,0c2,14.5,4.9,34.8,5.5,38.5c0.7,4.1-5.2,43.7-8.8,67h2      C582,572,587.2,533.2,587.9,529.5z"
   id="path150" />
				<path
   fill="#774933"
   d="M597.8,530.2c0.1-3.4-0.2-24.8-0.4-40.5l-3.2,0c0.6,15.9,1.3,37.7,1.2,42.3c-0.1,4.9-4,40.6-6.6,63.2      h1.6C593.2,571.7,597.7,534,597.8,530.2z"
   id="path152" />
			</g>
			<polygon
   fill="#B48252"
   points="583.7,496.7 586.3,525.8 588.8,495 586.6,489.7    "
   id="polygon156" />
			<path
   fill="#C59861"
   d="M583.7,496.7c0,0-18.6-0.5-21-6.9c-2.4-6.4,15-10.5,29.8-9.5c14.8,1,22,8,16.7,11.3     c-8.4,5.1-20.4,3.5-20.4,3.5l-2.2-5.2L583.7,496.7z"
   id="path158" />
		</g>
		<g
   id="g192">
			<g
   id="g174">
				<path
   fill="#89553D"
   d="M525.7,427c0,0-6.3,38.5-6.6,40.9c-0.4,2.4-2,18.2-2,18.2l-20.1,2.2l2.2-66.3l13.3,3.9L525.7,427z"
   id="path162" />
				<g
   id="g170">
					<path
   fill="#774933"
   d="M500.9,450.7c0.2-8.1,0.2-20.6,0.2-28.2l1.3,0.4c0,10.1,0.1,28.9,0,35.7c-0.1,6.8-1.6,21.5-2.5,29.3       l-1.6,0.2C499,479.1,500.7,460.2,500.9,450.7z"
   id="path164" />
					<path
   fill="#774933"
   d="M513.3,455.1c0-4.3-0.9-19.6-1.5-29.4l0.6,0.2l0.6,0.1c0.7,9.7,1.9,24,2.2,25c0.4,1,3.3-14.6,5.1-24.4       l1.4,0.1c-1.7,9.9-4.8,27.4-5.3,30.7c-0.5,3.3-1.1,19.8-1.4,28.9l-1.8,0.2C513.3,476.6,513.3,459.8,513.3,455.1z"
   id="path166" />
					<path
   fill="#774933"
   d="M506.2,487.3c0.5-7.2,1.8-24.4,2.1-27.9c0.3-3.4-0.6-24.9-1-35l1,0.3c0.5,8.6,1.3,25.3,1.3,30.5       c0,6.1-0.4,21.7-0.2,31.8L506.2,487.3z"
   id="path168" />
				</g>
				<path
   fill="#C59861"
   d="M513.3,422c0,0,11.3,2.3,12.4,5c1.1,2.7-9.3,3.8-15.1,2.7c-5.7-1.1-12-6.8-11.5-7.7c0.5-0.9,11,0,11,0      l2.4,3.9L513.3,422z"
   id="path172" />
			</g>
			<g
   id="g190">
				<path
   fill="#89553D"
   d="M340.1,427.4c0,0-2.5,31.3-2.9,33.9s0.1,32.7,0.1,32.7l-15.1,4.7c0,0-7.2-52.4-7.6-55.8      c-0.5-3.3-3.1-15.5-3.1-15.5L340.1,427.4z"
   id="path176" />
				<g
   id="g184">
					<path
   fill="#774933"
   d="M333.5,427.4c0.2,11.4,0.5,29.9,0.8,34.7c0.3,5.6,1.6,24.1,2.2,32.1l-1.1,0.4       c-0.8-9.5-2.6-31.7-2.7-35.7c-0.1-3.6,0-21.4,0.1-31.6L333.5,427.4z"
   id="path178" />
					<path
   fill="#774933"
   d="M331.2,495.9c-1.6-11.8-5.6-42.3-6.1-44.8c-0.4-2,1.6-14.7,3.1-23.7l1.6,0c-1.2,8.7-2.9,20.7-3.3,22.9       c-0.5,2.8,4.2,33.2,6.1,45.2L331.2,495.9z"
   id="path180" />
					<path
   fill="#774933"
   d="M320.6,452.6c0,3.6,3.6,34.4,4.8,45.1l-0.9,0.3c-1.3-10.9-5.2-43.8-5.3-46.5c-0.1-2,0.1-14.8,0.3-24.1       l1.9,0C321,436.9,320.6,449.9,320.6,452.6z"
   id="path182" />
				</g>
				<polygon
   fill="#B48252"
   points="327.6,431.5 326,448.9 324.5,430.5 325.8,427.4     "
   id="polygon186" />
				<path
   fill="#C59861"
   d="M327.6,431.5c0,0,11.1-0.3,12.5-4.1c1.4-3.8-8.9-6.3-17.7-5.7c-8.8,0.6-13.1,4.8-9.9,6.7      c5,3.1,12.1,2.1,12.1,2.1l1.3-3.1L327.6,431.5z"
   id="path188" />
			</g>
		</g>
		<g
   id="g224">
			<g
   id="g206">
				<path
   fill="#89553D"
   d="M368,381.2c0,0,3,18.2,3.1,19.3c0.2,1.1,0.9,8.6,0.9,8.6l9.5,1l-1-31.3l-6.3,1.8L368,381.2z"
   id="path194" />
				<g
   id="g202">
					<path
   fill="#774933"
   d="M379.7,392.4c-0.1-3.8-0.1-9.7-0.1-13.3l-0.6,0.2c0,4.8,0,13.6,0,16.8c0.1,3.2,0.8,10.1,1.2,13.8       l0.8,0.1C380.6,405.7,379.8,396.8,379.7,392.4z"
   id="path196" />
					<path
   fill="#774933"
   d="M373.9,394.5c0-2.1,0.4-9.3,0.7-13.9l-0.3,0.1l-0.3,0c-0.3,4.6-0.9,11.3-1,11.8       c-0.2,0.5-1.6-6.9-2.4-11.5l-0.7,0.1c0.8,4.7,2.2,13,2.5,14.5c0.2,1.6,0.5,9.3,0.7,13.6l0.9,0.1       C373.9,404.6,373.9,396.6,373.9,394.5z"
   id="path198" />
					<path
   fill="#774933"
   d="M377.2,409.6c-0.3-3.4-0.9-11.5-1-13.2c-0.1-1.6,0.3-11.7,0.5-16.5l-0.4,0.1c-0.2,4-0.6,11.9-0.6,14.4       c0,2.9,0.2,10.2,0.1,15L377.2,409.6z"
   id="path200" />
				</g>
				<path
   fill="#C59861"
   d="M373.9,378.8c0,0-5.3,1.1-5.8,2.4c-0.5,1.3,4.4,1.8,7.1,1.3c2.7-0.5,5.7-3.2,5.4-3.7      c-0.3-0.4-5.2,0-5.2,0l-1.1,1.8L373.9,378.8z"
   id="path204" />
			</g>
			<g
   id="g222">
				<path
   fill="#89553D"
   d="M455.6,381.3c0,0,1.2,14.8,1.4,16c0.2,1.2-0.1,15.5-0.1,15.5l7.1,2.2c0,0,3.4-24.7,3.6-26.3      c0.2-1.6,1.5-7.3,1.5-7.3L455.6,381.3z"
   id="path208" />
				<g
   id="g216">
					<path
   fill="#774933"
   d="M458.7,381.4c-0.1,5.4-0.2,14.1-0.4,16.4c-0.2,2.6-0.8,11.4-1,15.2l0.5,0.2c0.4-4.5,1.2-14.9,1.3-16.8       c0.1-1.7,0-10.1,0-14.9L458.7,381.4z"
   id="path210" />
					<path
   fill="#774933"
   d="M459.8,413.7c0.7-5.6,2.7-20,2.9-21.2c0.2-1-0.8-7-1.5-11.2l-0.7,0c0.6,4.1,1.4,9.8,1.6,10.8       c0.2,1.3-2,15.7-2.9,21.3L459.8,413.7z"
   id="path212" />
					<path
   fill="#774933"
   d="M464.8,393.2c0,1.7-1.7,16.3-2.3,21.3l0.4,0.1c0.6-5.1,2.5-20.7,2.5-21.9c0-1-0.1-7-0.1-11.4l-0.9,0       C464.6,385.8,464.8,392,464.8,393.2z"
   id="path214" />
				</g>
				<polygon
   fill="#B48252"
   points="461.5,383.3 462.3,391.5 463,382.8 462.4,381.4     "
   id="polygon218" />
				<path
   fill="#C59861"
   d="M461.5,383.3c0,0-5.2-0.1-5.9-1.9c-0.7-1.8,4.2-3,8.4-2.7c4.2,0.3,6.2,2.3,4.7,3.2c-2.4,1.4-5.7,1-5.7,1      l-0.6-1.5L461.5,383.3z"
   id="path220" />
			</g>
		</g>
		<g
   id="g288">
			<polygon
   fill="#C59861"
   points="398.2,371.1 231,595.3 606.2,595.3 439,371.1    "
   id="polygon226" />
			<g
   id="g234">
				<g
   id="g232">
					<polygon
   fill="#B48252"
   points="439,371.1 434.6,371.1 566.2,595.3 606.2,595.3      "
   id="polygon228" />
					<polygon
   fill="#B48252"
   points="398.2,371.1 231,595.3 271,595.3 402.5,371.1      "
   id="polygon230" />
				</g>
			</g>
			<g
   id="g254">
				<g
   id="g252">
					<polygon
   fill="#89553D"
   points="577.9,557.3 256.7,560.8 254.1,564.3 580.4,560.8      "
   id="polygon236" />
					<polygon
   fill="#89553D"
   points="550.5,520.6 548.7,518.3 294.5,510.1 292.8,512.4      "
   id="polygon238" />
					<polygon
   fill="#89553D"
   points="518.4,477.6 516.6,475.2 323.6,471.1 321.9,473.4      "
   id="polygon240" />
					<polygon
   fill="#89553D"
   points="494,444.9 492.7,443.2 344.4,443.2 343.1,444.9      "
   id="polygon242" />
					<polygon
   fill="#89553D"
   points="476.9,421.9 475.5,420.1 363.1,418.1 361.8,419.8      "
   id="polygon244" />
					<polygon
   fill="#89553D"
   points="461,400.6 460.1,399.5 377,399.5 376.1,400.6      "
   id="polygon246" />
					<polygon
   fill="#89553D"
   points="451.5,387.8 450.6,386.6 387.8,384.9 387,386.1      "
   id="polygon248" />
					<polygon
   fill="#89553D"
   points="393.4,377.4 443.7,377.4 442.9,376.3 394.3,376.3      "
   id="polygon250" />
				</g>
			</g>
			<g
   id="g286">
				<polygon
   fill="#CEA97B"
   points="523.1,483.9 522.3,482.8 312.8,485.6 311.9,486.7     "
   id="polygon256" />
				<polygon
   fill="#CEA97B"
   points="532.7,496.8 531.8,495.6 305.3,495.6 304.5,496.8     "
   id="polygon258" />
				<polygon
   fill="#CEA97B"
   points="554.6,526.2 553.8,525 286.8,520.5 285.9,521.6     "
   id="polygon260" />
				<polygon
   fill="#CEA97B"
   points="559.2,532.3 558.3,531.1 275.7,535.3 274.8,536.5     "
   id="polygon262" />
				<polygon
   fill="#CEA97B"
   points="574.2,552.4 573.3,551.2 263.9,551.2 263,552.4     "
   id="polygon264" />
				<polygon
   fill="#CEA97B"
   points="586.8,569.3 585.9,568.1 247.6,573.1 246.7,574.2     "
   id="polygon266" />
				<polygon
   fill="#CEA97B"
   points="601.7,589.3 600.8,588.1 240,583.2 239.2,584.3     "
   id="polygon268" />
				<polygon
   fill="#CEA97B"
   points="510.4,466.8 509.5,465.6 331.8,460.1 330.9,461.3     "
   id="polygon270" />
				<polygon
   fill="#CEA97B"
   points="498.3,450.6 497.4,449.5 337.9,451.9 337,453.1     "
   id="polygon272" />
				<polygon
   fill="#CEA97B"
   points="487.8,436.5 486.9,435.4 350.2,435.4 349.4,436.5     "
   id="polygon274" />
				<polygon
   fill="#CEA97B"
   points="482,428.8 481.1,427.6 360.3,421.9 359.4,423     "
   id="polygon276" />
				<polygon
   fill="#CEA97B"
   points="467.6,409.5 466.8,408.4 368.6,410.8 367.7,412     "
   id="polygon278" />
				<polygon
   fill="#CEA97B"
   points="464,404.7 463.2,403.5 374,403.5 373.1,404.7     "
   id="polygon280" />
				<polygon
   fill="#CEA97B"
   points="455.4,393.1 454.5,391.9 382.6,391.9 381.8,393.1     "
   id="polygon282" />
				<polygon
   fill="#CEA97B"
   points="445.2,379.4 391,380.8 390.1,381.9 446.1,380.6     "
   id="polygon284" />
			</g>
		</g>
	</g>
	<path
   opacity="0.35"
   fill="#FFFFFF"
   d="M0,78.7c0,0,67,13,199-14s107.5,8.6,107.5,8.6s162.1,11.4,257.3-5.1S743,0,743,0h41   c0,0-84,34.7-116,62.7s173.9-47,173.9-47v17c0,0-120.5,47.9-176.9,67s-274.9,26-326.4,25s7.5-29,7.5-29s-44-12-118.6-4   S89,124.4,0,136v-17.2c0,0,97-6.1,113-15.1S0,93.7,0,93.7V78.7z"
   id="path292" />
	<g
   id="g302">
		<path
   fill="#FFFFFF"
   d="M624.4,104.3l152.8-5.1l-18.3-3.7c0,0,10-13.1,5.6-19.8C760,69,743.2,83,743.2,83s9.1-14.5-6.6-26.2    c-15.7-11.7-25.8,23.8-25.8,23.8s13.8-29.4-18.2-34.4c-32-5-26.4,35.7-26.4,35.7s-0.8-7.8-12.7-9.5c-11.9-1.7-4,23.1-4,23.1    L624.4,104.3z"
   id="path294" />
		<path
   fill="#FFFFFF"
   d="M380.7,156l-104.3-3.5l12.5-2.5c0,0-6.9-8.9-3.8-13.5c3-4.6,14.5,4.9,14.5,4.9s-6.2-9.9,4.5-17.9    c10.7-8,17.6,16.2,17.6,16.2s-9.4-20,12.4-23.5s18.1,24.4,18.1,24.4s0.6-5.3,8.7-6.5c8.1-1.1,2.8,15.8,2.8,15.8L380.7,156z"
   id="path296" />
		<path
   fill="#FFFFFF"
   d="M84.6,87.6l135.5,3l-22-6c0,0,12.9-5,6.1-12.6c-6.8-7.6-20.3,3.5-20.3,3.5s7.8-14.6-2.5-22.2    c-10.2-7.6-25.6,16.6-25.6,16.6s13.9-20.7-8.8-24.2c-22.7-3.5-33.7,27.2-33.7,27.2s-2.6-10.1-12.2-9.6c-9.6,0.5-3,18.1-3,18.1    L84.6,87.6z"
   id="path298" />
		<path
   fill="#FFFFFF"
   d="M463.9,57.7L477,56c0,0-1.1-6.8,2.1-8.4c3.1-1.7,5,6.7,5,6.7s3.1-10.1,10.6-9.8c7.5,0.3,7.2,11.9,7.2,11.9    l8.4,1.4H463.9z"
   id="path300" />
	</g>
</g>
</svg>